Case study: Partial profiles • malan
…
Run a mutation process

Up until now, only the genealogy has been simulated. Now, we run a mutational process, i.e. assign haplotypes to founders and let haplotypes flow down the individuals.

We use realistic data. In the package, there is information about the individual markers:

ystr_markers

## # A tibble: 29 x 5
##    Marker  Mutations Meioses  MutProb Alleles   
##    <fct>       <dbl>   <dbl>    <dbl> <list>    
##  1 DYS438          4   10673 0.000375 <dbl [22]>
##  2 DYS392          8   15418 0.000519 <dbl [22]>
##  3 DYS393         15   14264 0.00105  <dbl [17]>
##  4 DYS437         13   10652 0.00122  <dbl [15]>
##  5 DYS385a        32   26171 0.00122  <dbl [52]>
##  6 DYS385b        32   26171 0.00122  <dbl [52]>
##  7 DYS643          3    2220 0.00135  <dbl [17]>
##  8 DYS448         11    7229 0.00152  <dbl [36]>
##  9 DYS390         33   15612 0.00211  <dbl [19]>
## 10 DYS19          36   16090 0.00224  <dbl [19]>
## # … with 19 more rows

Note, that MutProb is the point estimate given by MutProb = Mutations / Meioses. Information about which markers that are in which kit is also provided:

ystr_kits

## # A tibble: 88 x 2
##    Marker   Kit        
##    <fct>    <fct>      
##  1 DYS392   Minimal    
##  2 DYS393   Minimal    
##  3 DYS385a  Minimal    
##  4 DYS385b  Minimal    
##  5 DYS390   Minimal    
##  6 DYS19    Minimal    
##  7 DYS391   Minimal    
##  8 DYS389I  Minimal    
##  9 DYS389II Minimal    
## 10 DYS438   PowerPlex Y
## # … with 78 more rows
…
Let us take all PowerPlex Y23 markers and assume that we only have a partial profile where DYS437 and DYS448 dropped out. At the same time, we also filter out the integer alleles (for generating random founder haplotypes in a minute):

partial_kit <- ystr_kits %>% 
  filter(Kit == "PowerPlex Y23") %>% 
  inner_join(ystr_markers, by = "Marker") %>% 
  filter(!(Marker %in% c("DYS437", "DYS448"))) %>% 
  rowwise() %>% # To work on each row
  mutate(IntegerAlleles = list(Alleles[Alleles == round(Alleles)]),
         MinIntAllele = min(IntegerAlleles),
         MaxIntAllele = max(IntegerAlleles)) %>% 
  ungroup() %>% 
  select(-Kit, -Alleles)
partial_kit

## # A tibble: 21 x 7
##    Marker Mutations Meioses MutProb IntegerAlleles MinIntAllele
##    <fct>      <dbl>   <dbl>   <dbl> <list>                <dbl>
##  1 DYS438         4   10673 3.75e-4 <dbl [14]>                5
##  2 DYS392         8   15418 5.19e-4 <dbl [14]>                6
##  3 DYS393        15   14264 1.05e-3 <dbl [12]>                7
##  4 DYS38…        32   26171 1.22e-3 <dbl [23]>                6
##  5 DYS38…        32   26171 1.22e-3 <dbl [23]>                6
##  6 DYS643         3    2220 1.35e-3 <dbl [13]>                4
##  7 DYS390        33   15612 2.11e-3 <dbl [14]>               17
##  8 DYS19         36   16090 2.24e-3 <dbl [12]>                9
##  9 DYS391        38   15486 2.45e-3 <dbl [12]>                5
## 10 DYS38…        42   14339 2.93e-3 <dbl [9]>                 9
## # … with 11 more rows, and 1 more variable: MaxIntAllele <dbl>
…
